{
  "name": "puppet-nscd",
  "version": "3.0.1-rc0",
  "author": "Vox Pupuli",
  "project_page": "https://github.com/voxpupuli/puppet-nscd",
  "summary": "Manages the /etc/nscd.conf file and service",
  "license": "Apache-2.0",
  "description": "Manages the /etc/nscd.conf file and service",
  "source": "https://github.com/voxpupuli/puppet-nscd",
  "issues": "https://github.com/voxpupuli/puppet-nscd/issues",
  "tags": [
    "nscd",
    "dns",
    "dnscache",
    "cache"
  ],
  "dependencies": [
    {
      "name": "puppetlabs-stdlib",
      "version_requirement": ">= 4.13.1 < 7.0.0"
    }
  ],
  "requirements": [
    {
      "name": "puppet",
      "version_requirement": ">= 5.5.8 < 7.0.0"
    }
  ],
  "operatingsystem_support": [
    {
      "operatingsystem": "Ubuntu",
      "operatingsystemrelease": [
        "16.04"
      ]
    },
    {
      "operatingsystem": "Ubuntu",
      "operatingsystemrelease": [
        "18.04"
      ]
    },
    {
      "operatingsystem": "Debian",
      "operatingsystemrelease": [
        "8"
      ]
    },
    {
      "operatingsystem": "RedHat",
      "operatingsystemrelease": [
        "6",
        "7",
        "8"
      ]
    },
    {
      "operatingsystem": "CentOS",
      "operatingsystemrelease": [
        "6",
        "7",
        "8"
      ]
    },
    {
      "operatingsystem": "OracleLinux",
      "operatingsystemrelease": [
        "6",
        "7"
      ]
    },
    {
      "operatingsystem": "Scientific",
      "operatingsystemrelease": [
        "6",
        "7"
      ]
    }
  ]
}
